@startuml
skinparam shadowing false
skinparam classBorderThickness .5
skinparam monochrome true
skinparam defaultFontName "Verdana"
skinparam defaultFontSize 14

autonumber 1

Participant "IntegrationTest" #WHITE
Participant "Spring Application"
Participant "Jackson De/Serializer"
Participant "info:AddAccountToPersonRequestInfoDTO"
Participant "RestExceptionHandler"
Participant "excpMsg:ExceptionMessage"
Participant "ctrl:AddAccountToPersonRestController"
Participant "AddAccountToPersonRequestAssembler"

activate "IntegrationTest" #white
"IntegrationTest" -> "Spring Application" : POST:\npersons/tarcisio@family.com/accounts\n("denomination":\n"Groceries Account")

autonumber 1.1
activate "Spring Application" #white
"Spring Application" -> "Jackson De/Serializer" : deserialize\n("denomination":\n"Groceries Account",\n"personEmail":\n"tarcisio@family.com")

autonumber 1.1.1
activate "Jackson De/Serializer" #white
create "info:AddAccountToPersonRequestInfoDTO"
"Jackson De/Serializer" -> "info:AddAccountToPersonRequestInfoDTO" : create\n(denomination,\ndescription,\npersonEmail)
deactivate "Jackson De/Serializer"

autonumber 1.2
"Spring Application" -> "ctrl:AddAccountToPersonRestController" : addAccount(info)

autonumber 1.2.1
activate "ctrl:AddAccountToPersonRestController" #white
"ctrl:AddAccountToPersonRestController" -> "AddAccountToPersonRequestAssembler" : mapToAddAccountToPersonRequestDTO\n(info.getDescription,\n info.getDenomination,\n info.getPersonEmail)

activate "AddAccountToPersonRequestAssembler" #white
"AddAccountToPersonRequestAssembler" -->"ctrl:AddAccountToPersonRestController":exception
deactivate "AddAccountToPersonRequestAssembler"

"ctrl:AddAccountToPersonRestController" --> "Spring Application":exception
deactivate "ctrl:AddAccountToPersonRestController"

autonumber 1.3
"Spring Application" -> "RestExceptionHandler": handleException(exception)
activate "RestExceptionHandler" #white

create "excpMsg:ExceptionMessage"

autonumber 1.3.1
"RestExceptionHandler"->"excpMsg:ExceptionMessage":create
activate "excpMsg:ExceptionMessage"
"excpMsg:ExceptionMessage"--> "RestExceptionHandler":excpMsg
deactivate "excpMsg:ExceptionMessage"

"RestExceptionHandler" --> "Spring Application":responseEntity
deactivate "RestExceptionHandler"

autonumber 1.4
"Spring Application" -> "Jackson De/Serializer" : responseEntity
activate "Jackson De/Serializer"
autonumber 1.4.1
"Jackson De/Serializer" --> "Spring Application":HttpResponse
deactivate "Jackson De/Serializer"

"Spring Application" --> "IntegrationTest" : HttpResponse
deactivate "Spring Application"
deactivate "IntegrationTest"

@enduml