@startuml
skinparam shadowing true
skinparam classBorderThickness .7
skinparam monochrome true
skinparam defaultFontName "Verdana"
skinparam defaultFontSize 12
skinparam sequence {
   ParticipantBackgroundColor transparent
   ParticipantFontSize 14
   ActorFontSize 15
}

autonumber 1

Participant "ctrl:IsSibling\nPersonController"
Participant "IsSiblingPerson\nRequestAssembler"
Participant "srv:IsSibling\nPersonService"
Participant "requestDTO:\nIsSiblingRequestDTO"
Participant "person1:\nPerson"
Participant "personRepo:\nPersonRepository"
Participant "PersonDomain\nDataAssembler"
Participant "PersonJPA\nRepository"
Participant "personData1:\nPersonData"
Participant "personData2:\nPersonData"


autonumber 1.1
activate "ctrl:IsSibling\nPersonController" #white
"ctrl:IsSibling\nPersonController" -> "IsSiblingPerson\nRequestAssembler" : IsSiblingMapToDTO\n(info.getPersonID1(),\ninfo.getPersonID2())
activate "IsSiblingPerson\nRequestAssembler" #white

autonumber 1.1.1
create "requestDTO:\nIsSiblingRequestDTO"
"IsSiblingPerson\nRequestAssembler" -> "requestDTO:\nIsSiblingRequestDTO" : create
autonumber 1.2
"IsSiblingPerson\nRequestAssembler" --> "ctrl:IsSibling\nPersonController" : requestDTO
deactivate "IsSiblingPerson\nRequestAssembler"

autonumber 2.1
"ctrl:IsSibling\nPersonController" -> "srv:IsSibling\nPersonService" : isSibling(requestDTO)
activate "srv:IsSibling\nPersonService" #white


"srv:IsSibling\nPersonService" -> "personRepo:\nPersonRepository" : findByID(requestDTO.getPersonID1())
activate "personRepo:\nPersonRepository" #white

autonumber 2.2.1
"personRepo:\nPersonRepository"-> "PersonJPA\nRepository": findByID (email1)
activate "PersonJPA\nRepository"
autonumber 2.2.1.1
create "personData1:\nPersonData"
"PersonJPA\nRepository" -> "personData1:\nPersonData": create \npersonData1

"PersonJPA\nRepository" --> "personRepo:\nPersonRepository": personData1
deactivate "PersonJPA\nRepository"
"personRepo:\nPersonRepository" -> "PersonDomain\nDataAssembler": toDomain(personData1)
activate "PersonDomain\nDataAssembler"
"PersonDomain\nDataAssembler" --> "personRepo:\nPersonRepository" : person1
deactivate "PersonDomain\nDataAssembler"

"personRepo:\nPersonRepository" --> "srv:IsSibling\nPersonService": person1
autonumber 2.3
deactivate "personRepo:\nPersonRepository"

"srv:IsSibling\nPersonService" -> "personRepo:\nPersonRepository" : findByID(requestDTO.getPersonID2())
activate "personRepo:\nPersonRepository" #white

autonumber 2.3.1
"personRepo:\nPersonRepository"-> "PersonJPA\nRepository": findByID (email2)
activate "PersonJPA\nRepository"

autonumber 2.3.1.1
create "personData2:\nPersonData"
"PersonJPA\nRepository" -> "personData2:\nPersonData": create \npersonData2

"PersonJPA\nRepository" --> "personRepo:\nPersonRepository": personData2
deactivate "PersonJPA\nRepository"
"personRepo:\nPersonRepository" -> "PersonDomain\nDataAssembler": toDomain(personData2)
activate "PersonDomain\nDataAssembler"
"PersonDomain\nDataAssembler" --> "personRepo:\nPersonRepository" : person2
deactivate "PersonDomain\nDataAssembler"

"personRepo:\nPersonRepository" --> "srv:IsSibling\nPersonService": person2
deactivate "personRepo:\nPersonRepository"

autonumber 2.4
"srv:IsSibling\nPersonService" -> "person1:\nPerson": isSibling(person2)
deactivate
activate "person1:\nPerson" #white

"person1:\nPerson" --> "ctrl:IsSibling\nPersonController": true
deactivate "person1:\nPerson"

@enduml