@startuml
skinparam shadowing false
skinparam classBorderThickness .5
skinparam monochrome true
skinparam defaultFontName "Verdana"
skinparam defaultFontSize 14

participant Test #white

activate Test #white
create "ctrl017:us017Controller"
Test -> "ctrl017:us017Controller" : create
Test -> "ctrl017:us017Controller":getBalanceInPeriod(\n name,\n birthDate,\n birthPlace, \n inicialDate, \n endDate)
activate "ctrl017:us017Controller" #white
"ctrl017:us017Controller" -> "rp1:RepositoytPerson": rp1.getPersonID(\n name,\n birthDate,\n birthPlace)
activate "rp1:RepositoytPerson" #white
"rp1:RepositoytPerson"--> "ctrl017:us017Controller": personID
deactivate "rp1:RepositoytPerson"
"ctrl017:us017Controller"->"rl1:RepositoryLedger":rl1:getLedgerByID(\n personID,\n inicialDate,\n endDate)
activate "rl1:RepositoryLedger"  #white
"rl1:RepositoryLedger" -->"ctrl017:us017Controller":l1
deactivate "rl1:RepositoryLedger"
"ctrl017:us017Controller" -> "l1:Ledger": l1.getBalanceInPeriod(\n initialDate,\n endDate)
activate "l1:Ledger" #white
loop Transaction transaction : transactions
opt inicialDate<date<endDate
"l1:Ledger"->"l1:Ledger": sum(getAmount())
end
end
deactivate "ctrl017:us017Controller"
deactivate Test
deactivate "l1:Ledger"

@enduml