@startuml
skinparam shadowing false
skinparam classBorderThickness .5
skinparam monochrome true
skinparam defaultFontName "Verdana"
skinparam defaultFontSize 14

participant Test #white

activate Test #white
create "ctrl017:us017Controller"
Test -> "ctrl017:us017Controller" : create
Test -> "ctrl017:us017Controller": ctrl017.getBalanceInPeriod(\n initialDate, \n endDate, \njames)
activate "ctrl017:us017Controller" #white
"ctrl017:us017Controller" -> "james:Person": james.getBalanceInPeriod(\n initialDate,\n endDate)
activate "james:Person" #white
"james:Person" -> "ledger:Ledger": ledger.getBalanceInPeriod(\n initialDate,\n endDate)
deactivate "james:Person"
activate "ledger:Ledger" #white
create "ledger:Ledger"
deactivate "ledger:Ledger"
deactivate "ctrl017:us017Controller"
deactivate Test

@enduml